{
  "kind": "collectionType",
  "collectionName": "comments",
  "info": {
    "name": "comments"
  },
  "options": {
    "increments": true,
    "timestamps": true
  },
  "attributes": {
    "Comment": {
      "type": "richtext"
    },
    "Name": {
      "type": "string"
    },
    "post": {
      "via": "comments",
      "collection": "posts"
    }
  }
}
